{"current_page":1,"data":[{"id":3,"owner_id":58,"owner_user_id":null,"name":"\uc11c\uc6b8 \uac00\ub4e0","name_ko":null,"name_en":null,"category":"Restaurant","description":"\uc11c\uc6b8 \uac00\ub4e0\uc740 LA\uc5d0 \uc704\uce58\ud55c \ud55c\uc778 \uc5c5\uc18c\uc785\ub2c8\ub2e4. \ud55c\uad6d\uc5b4\ub85c \ud3b8\ud558\uac8c \uc774\uc6a9\ud558\uc138\uc694.","address":"1098 Korean Blvd, LA, USA","lat":null,"lng":null,"phone":"213-555-0001","website":null,"hours":null,"photos":null,"rating_avg":"4.80","review_count":0,"region":"LA","is_verified":false,"is_claimed":false,"is_premium":false,"premium_type":null,"premium_expires_at":null,"google_place_id":null,"is_sponsored":true,"status":"active","created_at":"2026-03-27T21:53:05.000000Z","updated_at":"2026-03-27T21:53:05.000000Z","deleted_at":null,"latitude":null,"longitude":null,"owner_description_ko":null,"owner_description_en":null,"owner_photos":null,"menu_items":null,"data_source":"manual","source_url":null,"temp_closed":false,"temp_closed_note":null},{"id":7,"owner_id":82,"owner_user_id":null,"name":"\uc870\uc120 \uac08\ube44","name_ko":null,"name_en":null,"category":"Restaurant","description":"\uc870\uc120 \uac08\ube44\uc740 LA\uc5d0 \uc704\uce58\ud55c \ud55c\uc778 \uc5c5\uc18c\uc785\ub2c8\ub2e4. \ud55c\uad6d\uc5b4\ub85c \ud3b8\ud558\uac8c \uc774\uc6a9\ud558\uc138\uc694.","address":"9015 Korean Blvd, LA, USA","lat":null,"lng":null,"phone":"213-555-0005","website":null,"hours":null,"photos":null,"rating_avg":"4.30","review_count":0,"region":"LA","is_verified":true,"is_claimed":false,"is_premium":false,"premium_type":null,"premium_expires_at":null,"google_place_id":null,"is_sponsored":true,"status":"active","created_at":"2026-03-27T21:53:05.000000Z","updated_at":"2026-03-27T21:53:05.000000Z","deleted_at":null,"latitude":null,"longitude":null,"owner_description_ko":null,"owner_description_en":null,"owner_photos":null,"menu_items":null,"data_source":"manual","source_url":null,"temp_closed":false,"temp_closed_note":null},{"id":5,"owner_id":102,"owner_user_id":null,"name":"\ud55c\ubbf8 \ubc95\ub960\uc0ac\ubb34\uc18c","name_ko":null,"name_en":null,"category":"Legal","description":"\ud55c\ubbf8 \ubc95\ub960\uc0ac\ubb34\uc18c\uc740 Atlanta\uc5d0 \uc704\uce58\ud55c \ud55c\uc778 \uc5c5\uc18c\uc785\ub2c8\ub2e4. \ud55c\uad6d\uc5b4\ub85c \ud3b8\ud558\uac8c \uc774\uc6a9\ud558\uc138\uc694.","address":"5720 Korean Blvd, Atlanta, USA","lat":"33.7490000","lng":"-84.3880000","phone":"404-555-0003","website":null,"hours":null,"photos":null,"rating_avg":"3.90","review_count":0,"region":"Atlanta","is_verified":false,"is_claimed":false,"is_premium":false,"premium_type":null,"premium_expires_at":null,"google_place_id":null,"is_sponsored":true,"status":"active","created_at":"2026-03-27T21:53:05.000000Z","updated_at":"2026-03-27T21:53:05.000000Z","deleted_at":null,"latitude":null,"longitude":null,"owner_description_ko":null,"owner_description_en":null,"owner_photos":null,"menu_items":null,"data_source":"manual","source_url":null,"temp_closed":false,"temp_closed_note":null},{"id":11,"owner_id":54,"owner_user_id":null,"name":"\ud55c\uad6d\uc758\ub8cc\uc13c\ud130","name_ko":null,"name_en":null,"category":"Medical","description":"\ud55c\uad6d\uc758\ub8cc\uc13c\ud130\uc740 LA\uc5d0 \uc704\uce58\ud55c \ud55c\uc778 \uc5c5\uc18c\uc785\ub2c8\ub2e4. \ud55c\uad6d\uc5b4\ub85c \ud3b8\ud558\uac8c \uc774\uc6a9\ud558\uc138\uc694.","address":"944 Korean Blvd, LA, USA","lat":null,"lng":null,"phone":"310-555-0009","website":null,"hours":null,"photos":null,"rating_avg":"3.80","review_count":0,"region":"LA","is_verified":false,"is_claimed":false,"is_premium":false,"premium_type":null,"premium_expires_at":null,"google_place_id":null,"is_sponsored":true,"status":"active","created_at":"2026-03-27T21:53:05.000000Z","updated_at":"2026-03-27T21:53:05.000000Z","deleted_at":null,"latitude":null,"longitude":null,"owner_description_ko":null,"owner_description_en":null,"owner_photos":null,"menu_items":null,"data_source":"manual","source_url":null,"temp_closed":false,"temp_closed_note":null},{"id":10,"owner_id":65,"owner_user_id":null,"name":"\ubd88\ub9db \uce58\ud0a8","name_ko":null,"name_en":null,"category":"Restaurant","description":"\ubd88\ub9db \uce58\ud0a8\uc740 Dallas\uc5d0 \uc704\uce58\ud55c \ud55c\uc778 \uc5c5\uc18c\uc785\ub2c8\ub2e4. \ud55c\uad6d\uc5b4\ub85c \ud3b8\ud558\uac8c \uc774\uc6a9\ud558\uc138\uc694.","address":"5928 Korean Blvd, Dallas, USA","lat":"32.7767000","lng":"-96.7970000","phone":"972-555-0008","website":null,"hours":null,"photos":null,"rating_avg":"3.80","review_count":0,"region":"Dallas","is_verified":false,"is_claimed":false,"is_premium":false,"premium_type":null,"premium_expires_at":null,"google_place_id":null,"is_sponsored":true,"status":"active","created_at":"2026-03-27T21:53:05.000000Z","updated_at":"2026-03-27T21:53:05.000000Z","deleted_at":null,"latitude":null,"longitude":null,"owner_description_ko":null,"owner_description_en":null,"owner_photos":null,"menu_items":null,"data_source":"manual","source_url":null,"temp_closed":false,"temp_closed_note":null}],"first_page_url":"https:\/\/somekorean.com\/api\/businesses?page=1","from":1,"last_page":43,"last_page_url":"https:\/\/somekorean.com\/api\/businesses?page=43","links":[{"url":null,"label":"&laquo; Previous","page":null,"active":false},{"url":"https:\/\/somekorean.com\/api\/businesses?page=1","label":"1","page":1,"active":true},{"url":"https:\/\/somekorean.com\/api\/businesses?page=2","label":"2","page":2,"active":false},{"url":"https:\/\/somekorean.com\/api\/businesses?page=3","label":"3","page":3,"active":false},{"url":"https:\/\/somekorean.com\/api\/businesses?page=4","label":"4","page":4,"active":false},{"url":"https:\/\/somekorean.com\/api\/businesses?page=5","label":"5","page":5,"active":false},{"url":"https:\/\/somekorean.com\/api\/businesses?page=6","label":"6","page":6,"active":false},{"url":"https:\/\/somekorean.com\/api\/businesses?page=7","label":"7","page":7,"active":false},{"url":"https:\/\/somekorean.com\/api\/businesses?page=8","label":"8","page":8,"active":false},{"url":"https:\/\/somekorean.com\/api\/businesses?page=9","label":"9","page":9,"active":false},{"url":"https:\/\/somekorean.com\/api\/businesses?page=10","label":"10","page":10,"active":false},{"url":null,"label":"...","active":false},{"url":"https:\/\/somekorean.com\/api\/businesses?page=42","label":"42","page":42,"active":false},{"url":"https:\/\/somekorean.com\/api\/businesses?page=43","label":"43","page":43,"active":false},{"url":"https:\/\/somekorean.com\/api\/businesses?page=2","label":"Next &raquo;","page":2,"active":false}],"next_page_url":"https:\/\/somekorean.com\/api\/businesses?page=2","path":"https:\/\/somekorean.com\/api\/businesses","per_page":5,"prev_page_url":null,"to":5,"total":212}